{
  "$schema": "https://docs.renovatebot.com/renovate-schema.json",
  "extends": [
    "config:recommended"
  ],
  "labels": [
    "Maintenance"
  ],
  "packageRules": [
    {
      "matchPackagePatterns": [
        "opentelemetry",
        "opentelemetry*"
      ],
      "groupName": "opentelemetry-rs",
      "groupSlug": "opentelemetry-rs"
    }
  ]
}
